Fri;02 Mar 2018;-7;-11;Легкий снегопад
Sat;03 Mar 2018;-1;-10;Снег
Sun;04 Mar 2018;-4;-8;Легкий снегопад
Mon;05 Mar 2018;-8;-15;Ясно (днем)
Tue;06 Mar 2018;-5;-16;Преимущественная облачность (днем)
Wed;07 Mar 2018;-4;-6;Облачно
Thu;08 Mar 2018;-2;-4;Преимущественная облачность (днем)
Fri;09 Mar 2018;-3;-8;Преимущественная облачность (днем)
Sat;10 Mar 2018;-2;-11;Преимущественная облачность (днем)
Sun;11 Mar 2018;0;-5;Преимущественная облачность (днем)
